Visualize – PLAY Survey Data
…
word_ct

# A tibble: 354 × 2
   word         n
   <chr>    <int>
 1 daddy      136
 2 mommy      133
 3 bye        127
 4 uhoh       122
 5 ball       118
 6 hi         118
 7 no         117
 8 banana     106
 9 woofwoof   106
10 yes        100
# ℹ 344 more rows
…
