Screening call | PLAY Project: Survey protocol
…
## [[2]]
## # A tibble: 1 × 236
##   start end   c_today play_…¹ play_…² play_…³ play_…⁴ play_…⁵ play_…⁶
##   <chr> <chr> <chr>   <lgl>   <lgl>   <chr>   <chr>   <chr>   <lgl>  
## 1 2022… 2022… 2022-1… NA      NA      UTAUS   001     Tamara… NA     
## # … with 227 more variables:
## #   `play_demo_questionnaire/group_contact_info/parent_phone` <chr>,
## #   `play_demo_questionnaire/group_contact_info/parent_email` <chr>,
## #   `play_demo_questionnaire/group_contact_info/group_address/note_parent_address` <lgl>,
## #   `play_demo_questionnaire/group_contact_info/group_address/parent_address_1` <chr>,
## #   `play_demo_questionnaire/group_contact_info/group_address/parent_address_2` <chr>,
## #   `play_demo_questionnaire/group_contact_info/group_address/city` <chr>, …
## 
## [[3]]
## # A tibble: 224 × 239
##    start        end   c_today play_…¹ play_…² play_…³ play_…⁴ play_…⁵
##    <chr>        <chr> <chr>   <lgl>   <lgl>   <chr>   <chr>   <chr>  
##  1 2020-02-27T… 2020… 2020-0… NA      NA      NYUNI   230     <NA>   
##  2 2020-02-27T… 2020… 2020-0… NA      NA      NYUNI   229     <NA>   
##  3 2019-12-18T… 2020… 2020-0… NA      NA      VCOMU   002     <NA>   
##  4 2020-01-01T… 2020… 2020-0… NA      NA      GEORG   010     <NA>   
##  5 2020-01-15T… 2020… 2020-0… NA      NA      NYUNI   008     <NA>   
##  6 2020-01-15T… 2020… 2020-0… NA      NA      NYUNI   009     <NA>   
##  7 2020-01-24T… 2020… 2020-0… NA      NA      GEORG   011     <NA>   
##  8 2020-01-30T… 2020… 2020-0… NA      NA      NYUNI   010     <NA>   
##  9 2020-02-03T… 2020… 2020-0… NA      NA      NYUNI   011     <NA>   
## 10 2020-02-05T… 2020… 2020-0… NA      NA      VCOMU   003     <NA>   
## # … with 214 more rows, 231 more variables:
## #   `play_demo_questionnaire/group_contact_info/instructions_contactinfo` <lgl>,
## #   `play_demo_questionnaire/group_contact_info/parent_phone` <chr>,
## #   `play_demo_questionnaire/group_contact_info/parent_email` <chr>,
## #   `play_demo_questionnaire/group_contact_info/group_address/note_parent_address` <lgl>,
## #   `play_demo_questionnaire/group_contact_info/group_address/parent_address_1` <chr>,
## #   `play_demo_questionnaire/group_contact_info/group_address/parent_address_2` <chr>, …
…
