15-mb-cdi.knit
…
select_basename <- function(csv_fn) {
  assertthat::is.string(csv_fn)
  assertthat::is.readable(csv_fn)
  
  df <- readr::read_csv(csv_fn,
                    col_types = readr::cols(.default = 'c'),
                    show_col_types = FALSE)
  
  names(df) <- basename(names(df))
  df
}

select_basename(eng_12_files$fn[3])

## # A tibble: 111 × 257
##    participant_id note_vocab_mbcdiperm…¹ vocab_instructions1 vocab_instructions2
##    <chr>          <chr>                  <chr>               <chr>              
##  1 e0N0S0S1A      <NA>                   <NA>                <NA>               
##  2 e0N6T0S1A      <NA>                   <NA>                <NA>               
##  3 a9L2M0A2A      <NA>                   <NA>                <NA>               
##  4 o2C0C1C2A      <NA>                   <NA>                <NA>               
##  5 o2C0A1C2A      <NA>                   <NA>                <NA>               
##  6 a3W4N1F0A      <NA>                   <NA>                <NA>               
##  7 l3S3A1L1A      <NA>                   <NA>                <NA>               
##  8 o4C9K1M0A      <NA>                   <NA>                <NA>               
##  9 o4C3O1H0A      <NA>                   <NA>                <NA>               
## 10 a4S2B1P0A      <NA>                   <NA>                <NA>               
## # ℹ 101 more rows
## # ℹ abbreviated name: ¹​note_vocab_mbcdipermission
## # ℹ 253 more variables: vocab_instructions3 <chr>, vocab_instructions4 <chr>,
## #   vocab_instructions5 <chr>, vocab_instructions6 <chr>,
## #   vocab_instructions7 <chr>, vocab_instructions8 <chr>, choo_choo <chr>,
## #   meow <chr>, ouch <chr>, uh_oh <chr>, bird <chr>, dog <chr>, duck <chr>,
## #   kitty <chr>, lion <chr>, mouse <chr>, car <chr>, stroller <chr>, …
…
