PLAY Project: Surveys
…
## `group_family_structure/household_members/cousin`,
## `group_family_structure/household_members/relative`,
## `group_family_structure/household_members/non_relative`,
## `group_family_structure/other_relatives`, `group_family_structure/other_non_relatives`,
## `group_family_structure/indicate_familystructure`,
## `group_child_care_arrangements/childcare_types`,
## `group_child_care_arrangements/childcare_types/relative`,
## `group_child_care_arrangements/childcare_types/childcare`,
## `group_child_care_arrangements/childcare_types/none`,
## `group_child_care_arrangements/childcare_hours`,
## `group_child_care_arrangements/childcare_number`,
## `group_child_care_arrangements/childcare_age`,
## `group_child_care_arrangements/childcare_language`, `_id`)`

## # A tibble: 477 × 162
##    start             end   c_today update_date site_id subject_number state check_childage
##    <chr>             <chr> <chr>   <chr>       <chr>   <chr>          <chr> <chr>         
##  1 2020-02-27T08:24… 2020… 2020-0… <NA>        NYUNI   230            New … 32.6772408503…
##  2 2020-02-27T08:43… 2020… 2020-0… <NA>        NYUNI   229            New … 32.3813828621…
##  3 2019-12-18T16:37… 2020… 2020-0… <NA>        VCOMU   002            VA    26.7258382642…
##  4 2020-01-01T12:54… 2020… 2020-0… <NA>        GEORG   010            Virg… 12.7547666009…
##  5 2020-01-15T14:53… 2020… 2020-0… <NA>        NYUNI   008            New … 13.4122287968…
##  6 2020-01-15T15:47… 2020… 2020-0… <NA>        NYUNI   009            New … 19.3636313828…
##  7 2020-01-24T14:22… 2020… 2020-0… <NA>        GEORG   011            Virg… 17.8514683322…
##  8 2020-01-30T13:30… 2020… 2020-0… <NA>        NYUNI   010            NY    17.8514683322…
##  9 2020-02-03T17:40… 2020… 2020-0… <NA>        NYUNI   011            New … 23.8001314924…
## 10 2020-02-05T09:39… 2020… 2020-0… <NA>        VCOMU   003            VA    17.5884834538…
## # ℹ 467 more rows
## # ℹ 154 more variables: check_childage_weeks <chr>, child_sex <chr>, day <chr>,
## #   day2 <chr>, day1 <chr>, play_id <chr>, language_spoken_mom <chr>,
## #   `language_spoken_mom/english` <chr>, `language_spoken_mom/spanish` <chr>,
## #   `language_spoken_mom/other` <chr>, language_spoken_mom_other <chr>,
## #   language_spoken_child <chr>, `language_spoken_child/english` <chr>,
## #   `language_spoken_child/spanish` <chr>, `language_spoken_child/other` <chr>, …
…
